simulation/qsim/ProyectoTyDD2.msim.vcd
$comment
	File created using the following command:
		vcd file ProyectoTyDD2.msim.vcd -direction
$end
$date
	Mon Dec 12 17:51:23 2022
$end
$version
	ModelSim Version 10.1d
$end
$timescale
	1ps
$end
$scope module Completo_vlg_vec_tst $end
$var reg 1 ! areset $end
$var reg 1 " inclk0 $end
$var reg 1 # N $end
$var wire 1 $ c0 $end
$var wire 1 % LEDZ0 $end
$var wire 1 & LEDZ1 $end
$var wire 1 ' LEDZ2 $end
$var wire 1 ( lock $end
$var wire 1 ) Z0 $end
$var wire 1 * Z1 $end
$var wire 1 + Z2 $end
$var wire 1 , sampler $end
$scope module i1 $end
$var wire 1 - gnd $end
$var wire 1 . vcc $end
$var wire 1 / unknown $end
$var tri1 1 0 devclrn $end
$var tri1 1 1 devpor $end
$var tri1 1 2 devoe $end
$var wire 1 3 inst2|fstate.P_000~q $end
$var wire 1 4 inst2|fstate.N_011~q $end
$var wire 1 5 inst2|fstate.C_110~q $end
$var wire 1 6 inst2|reg_fstate.P_000~0_combout $end
$var wire 1 7 inst2|reg_fstate.N_011~0_combout $end
$var wire 1 8 inst2|reg_fstate.C_110~0_combout $end
$var wire 1 9 inst2|fstate.E_111~q $end
$var wire 1 : inst2|reg_fstate.E_111~0_combout $end
$var wire 1 ; inclk0~input_o $end
$var wire 1 < inst|altpll_component|auto_generated|wire_pll1_fbout $end
$var wire 1 = inst|altpll_component|auto_generated|wire_pll1_locked $end
$var wire 1 > inst|altpll_component|auto_generated|pll_lock_sync~feeder_combout $end
$var wire 1 ? areset~input_o $end
$var wire 1 @ inst|altpll_component|auto_generated|pll_lock_sync~q $end
$var wire 1 A inst|altpll_component|auto_generated|locked~combout $end
$var wire 1 B inst2|reg_fstate.A_000~0_combout $end
$var wire 1 C inst2|fstate.A_000~q $end
$var wire 1 D inst2|reg_fstate.B_100~0_combout $end
$var wire 1 E inst2|fstate.B_100~q $end
$var wire 1 F inst2|reg_fstate.D_010~0_combout $end
$var wire 1 G inst2|fstate.D_010~q $end
$var wire 1 H inst2|reg_fstate.G_011~0_combout $end
$var wire 1 I inst2|fstate.G_011~q $end
$var wire 1 J inst2|reg_fstate.M_010~0_combout $end
$var wire 1 K inst2|fstate.M_010~q $end
$var wire 1 L N~input_o $end
$var wire 1 M inst2|reg_fstate.O_001~0_combout $end
$var wire 1 N inst2|fstate.O_001~q $end
$var wire 1 O inst2|reg_fstate.H_001~0_combout $end
$var wire 1 P inst2|fstate.H_001~q $end
$var wire 1 Q inst2|Z2~0_combout $end
$var wire 1 R inst2|Z0~0_combout $end
$var wire 1 S inst2|Z2~1_combout $end
$var wire 1 T inst2|reg_fstate.F_101~0_combout $end
$var wire 1 U inst2|fstate.F_101~q $end
$var wire 1 V inst2|reg_fstate.K_100~0_combout $end
$var wire 1 W inst2|fstate.K_100~q $end
$var wire 1 X inst2|Z1~0_combout $end
$var wire 1 Y inst2|reg_fstate.L_101~0_combout $end
$var wire 1 Z inst2|fstate.L_101~q $end
$var wire 1 [ inst2|Z1~1_combout $end
$var wire 1 \ inst2|reg_fstate.I_110~0_combout $end
$var wire 1 ] inst2|fstate.I_110~q $end
$var wire 1 ^ inst2|Z0~1_combout $end
$var wire 1 _ inst2|Z0~2_combout $end
$var wire 1 ` inst|altpll_component|auto_generated|wire_pll1_clk[0]~clkctrl_outclk $end
$var wire 1 a inst|altpll_component|auto_generated|wire_pll1_clk [4] $end
$var wire 1 b inst|altpll_component|auto_generated|wire_pll1_clk [3] $end
$var wire 1 c inst|altpll_component|auto_generated|wire_pll1_clk [2] $end
$var wire 1 d inst|altpll_component|auto_generated|wire_pll1_clk [1] $end
$var wire 1 e inst|altpll_component|auto_generated|wire_pll1_clk [0] $end
$var wire 1 f inst|altpll_component|auto_generated|pll1_CLK_bus [4] $end
$var wire 1 g inst|altpll_component|auto_generated|pll1_CLK_bus [3] $end
$var wire 1 h inst|altpll_component|auto_generated|pll1_CLK_bus [2] $end
$var wire 1 i inst|altpll_component|auto_generated|pll1_CLK_bus [1] $end
$var wire 1 j inst|altpll_component|auto_generated|pll1_CLK_bus [0] $end
$upscope $end
$upscope $end
$enddefinitions $end
#0
$dumpvars
0!
0"
0#
x$
x%
x&
x'
x(
x)
x*
x+
x,
0-
1.
x/
10
11
12
03
04
05
x6
x7
x8
09
x:
0;
x<
0=
1>
0?
0@
xA
xB
0C
xD
0E
xF
0G
xH
0I
xJ
0K
0L
xM
0N
xO
0P
xQ
xR
xS
xT
0U
xV
0W
xX
xY
0Z
x[
x\
0]
x^
x_
x`
xe
xd
xc
xb
xa
xj
xi
xh
xg
xf
$end
#488
0Y
#490
07
0J
#492
0V
#521
0A
#523
0:
#524
0T
#525
08
#653
1X
#721
0B
#722
0D
#736
0\
#742
0R
#768
0F
#773
06
#784
0H
0O
#788
1Q
#847
0M
#990
1^
#1144
0S
#1408
0_
#1630
0[
#4395
0(
#5709
0'
#6798
0*
#6971
0&
#7109
0%
#8332
0)
#9192
0+
#10000
1"
0,
#10786
1;
#12725
1<
#20000
1#
0"
1,
#20789
1L
#20893
0;
#22725
0<
#30000
1"
0,
#30786
1;
#32725
1<
#40000
0"
1,
#40893
0;
#42725
0<
#50000
1"
0,
#50786
1;
#52725
1<
#60000
0"
1,
#60893
0;
#62725
0<
#70000
1"
0,
#70786
1;
#72725
1<
#80000
0"
1,
#80893
0;
#82866
0<
#90000
1"
0,
#90786
1;
#93008
1<
1=
0f
0g
0h
0i
1j
0a
0b
0c
0d
1e
#94728
1@
#95185
1A
#95275
1`
#95835
0j
0e
#98068
0`
#99136
1(
#99309
1$
#100000
0"
1,
#100893
0;
#102055
0$
#103008
0<
#105835
1j
1e
#108102
1`
#110000
1"
0,
#110786
1;
#112136
1$
#113008
1<
#115835
0j
0e
#118068
0`
#120000
0"
1,
#120893
0;
#122055
0$
#123008
0<
#125835
1j
1e
#128102
1`
#130000
1"
0,
#130786
1;
#132136
1$
#133008
1<
#135835
0j
0e
#138068
0`
#140000
0"
1,
#140893
0;
#142055
0$
#143008
0<
#145835
1j
1e
#148102
1`
#150000
1"
0,
#150786
1;
#152136
1$
#153008
1<
#155835
0j
0e
#158068
0`
#160000
0"
1,
#160893
0;
#162055
0$
#163008
0<
#165835
1j
1e
#168102
1`
#170000
1"
0,
#170786
1;
#172136
1$
#173008
1<
#175835
0j
0e
#178068
0`
#180000
0"
1,
#180893
0;
#182055
0$
#183008
0<
#185835
1j
1e
#188102
1`
#190000
1"
0,
#190786
1;
#192136
1$
#193008
1<
#195835
0j
0e
#198068
0`
#200000
0"
1,
#200893
0;
#202055
0$
#203008
0<
#205835
1j
1e
#208102
1`
#210000
1"
0,
#210786
1;
#212136
1$
#213008
1<
#215835
0j
0e
#218068
0`
#220000
0#
0"
1,
#220893
0;
#220894
0L
#222055
0$
#223008
0<
#225835
1j
1e
#226188
1D
#226214
1B
#228102
1`
#230000
1"
0,
#230468
1C
1E
#230786
1;
#231030
0X
#231121
1R
#231126
0D
#231308
18
#231433
0^
#231511
1S
#231748
1_
#231951
0_
#232136
1$
#233008
1<
#235835
0j
0e
#236206
1'
#238068
0`
#239442
1+
#240000
0"
1,
#240893
0;
#242055
0$
#243008
0<
#245835
1j
1e
#248102
1`
#250000
1"
0,
#250468
15
0E
#250786
1;
#251120
1X
#251125
1:
#251375
08
#251912
1[
#252136
1$
#253008
1<
#255835
0j
0e
#257080
1*
#257200
1&
#258068
0`
#260000
0"
1,
#260893
0;
#262055
0$
#263008
0<
#265835
1j
1e
#268102
1`
#270000
1#
1"
0,
#270468
05
19
#270786
1;
#270789
1L
#271231
0:
#271274
1^
#271803
1_
#272136
1$
#273008
1<
#275663
1\
#275835
0j
0e
#277797
1%
#278068
0`
#278705
1)
#280000
0"
1,
#280893
0;
#282055
0$
#283008
0<
#285835
1j
1e
#288102
1`
#290000
1"
0,
#290468
09
1]
#290786
1;
#290859
0^
#291377
0_
#292136
1$
#293008
1<
#295835
0j
0e
#297078
0%
#298068
0`
#298301
0)
#300000
0#
0"
1,
#300893
0;
#300894
0L
#302055
0$
#303008
0<
#305835
1j
1e
#308102
1`
#310000
1"
0,
#310786
1;
#312136
1$
#313008
1<
#315835
0j
0e
#318068
0`
#320000
0"
1,
#320893
0;
#322055
0$
#323008
0<
#325835
1j
1e
#328102
1`
#330000
1"
0,
#330786
1;
#332136
1$
#333008
1<
#335835
0j
0e
#338068
0`
#340000
0"
1,
#340893
0;
#342055
0$
#343008
0<
#345835
1j
1e
#348102
1`
#350000
1#
1"
0,
#350786
1;
#350789
1L
#352136
1$
#353008
1<
#355835
0j
0e
#358068
0`
#360000
0"
1,
#360893
0;
#362055
0$
#363008
0<
#365835
1j
1e
#368102
1`
#370000
1"
0,
#370786
1;
#372136
1$
#373008
1<
#375835
0j
0e
#378068
0`
#380000
0#
0"
1,
#380893
0;
#380894
0L
#382055
0$
#383008
0<
#385835
1j
1e
#388102
1`
#390000
1"
0,
#390786
1;
#392136
1$
#393008
1<
#395835
0j
0e
#398068
0`
#400000
0"
1,
#400893
0;
#402055
0$
#403008
0<
#405835
1j
1e
#408102
1`
#410000
1"
0,
#410786
1;
#412136
1$
#413008
1<
#415835
0j
0e
#418068
0`
#420000
0"
1,
#420893
0;
#422055
0$
#423008
0<
#425835
1j
1e
#428102
1`
#430000
1"
0,
#430786
1;
#432136
1$
#433008
1<
#435835
0j
0e
#438068
0`
#440000
0"
1,
#440893
0;
#442055
0$
#443008
0<
#445835
1j
1e
#448102
1`
#450000
1"
0,
#450786
1;
#452136
1$
#453008
1<
#455835
0j
0e
#458068
0`
#460000
0"
1,
#460893
0;
#462055
0$
#463008
0<
#465835
1j
1e
#468102
1`
#470000
1#
1"
0,
#470786
1;
#470789
1L
#472136
1$
#473008
1<
#475835
0j
0e
#478068
0`
#480000
0"
1,
#480893
0;
#482055
0$
#483008
0<
#485835
1j
1e
#488102
1`
#490000
1"
0,
#490786
1;
#492136
1$
#493008
1<
#495835
0j
0e
#498068
0`
#500000
0"
1,
#500893
0;
#502055
0$
#503008
0<
#505835
1j
1e
#508102
1`
#510000
0#
1"
0,
#510786
1;
#510894
0L
#512136
1$
#513008
1<
#515835
0j
0e
#518068
0`
#520000
0"
1,
#520893
0;
#522055
0$
#523008
0<
#525835
1j
1e
#528102
1`
#530000
1"
0,
#530786
1;
#532136
1$
#533008
1<
#535835
0j
0e
#538068
0`
#540000
0"
1,
#540893
0;
#542055
0$
#543008
0<
#545835
1j
1e
#548102
1`
#550000
1"
0,
#550786
1;
#552136
1$
#553008
1<
#555835
0j
0e
#558068
0`
#560000
0"
1,
#560893
0;
#562055
0$
#563008
0<
#565835
1j
1e
#568102
1`
#570000
1"
0,
#570786
1;
#572136
1$
#573008
1<
#575835
0j
0e
#578068
0`
#580000
0"
1,
#580893
0;
#582055
0$
#583008
0<
#585835
1j
1e
#588102
1`
#590000
1"
0,
#590786
1;
#592136
1$
#593008
1<
#595835
0j
0e
#598068
0`
#600000
0"
1,
#600893
0;
#602055
0$
#603008
0<
#605835
1j
1e
#608102
1`
#610000
1"
0,
#610786
1;
#612136
1$
#613008
1<
#615835
0j
0e
#618068
0`
#620000
0"
1,
#620893
0;
#622055
0$
#623008
0<
#625835
1j
1e
#628102
1`
#630000
1"
0,
#630786
1;
#632136
1$
#633008
1<
#635835
0j
0e
#638068
0`
#640000
0"
1,
#640893
0;
#642055
0$
#643008
0<
#645835
1j
1e
#648102
1`
#650000
1"
0,
#650786
1;
#652136
1$
#653008
1<
#655835
0j
0e
#658068
0`
#660000
0"
1,
#660893
0;
#662055
0$
#663008
0<
#665835
1j
1e
#668102
1`
#670000
1"
0,
#670786
1;
#672136
1$
#673008
1<
#675835
0j
0e
#678068
0`
#680000
0"
1,
#680893
0;
#682055
0$
#683008
0<
#685835
1j
1e
#688102
1`
#690000
1"
0,
#690786
1;
#692136
1$
#693008
1<
#695835
0j
0e
#698068
0`
#700000
0"
1,
#700893
0;
#702055
0$
#703008
0<
#705835
1j
1e
#708102
1`
#710000
1"
0,
#710786
1;
#712136
1$
#713008
1<
#715835
0j
0e
#718068
0`
#720000
0"
1,
#720893
0;
#722055
0$
#723008
0<
#725835
1j
1e
#728102
1`
#730000
1"
0,
#730786
1;
#732136
1$
#733008
1<
#735835
0j
0e
#738068
0`
#740000
0"
1,
#740893
0;
#742055
0$
#743008
0<
#745835
1j
1e
#748102
1`
#750000
1"
0,
#750786
1;
#752136
1$
#753008
1<
#755835
0j
0e
#758068
0`
#760000
0"
1,
#760893
0;
#762055
0$
#763008
0<
#765835
1j
1e
#768102
1`
#770000
1"
0,
#770786
1;
#772136
1$
#773008
1<
#775835
0j
0e
#778068
0`
#780000
0"
1,
#780893
0;
#782055
0$
#783008
0<
#785835
1j
1e
#788102
1`
#790000
1"
0,
#790786
1;
#792136
1$
#793008
1<
#795835
0j
0e
#798068
0`
#800000
0"
1,
#800893
0;
#802055
0$
#803008
0<
#805835
1j
1e
#808102
1`
#810000
1"
0,
#810786
1;
#812136
1$
#813008
1<
#815835
0j
0e
#818068
0`
#820000
0"
1,
#820893
0;
#822055
0$
#823008
0<
#825835
1j
1e
#828102
1`
#830000
1"
0,
#830786
1;
#832136
1$
#833008
1<
#835835
0j
0e
#838068
0`
#840000
0"
1,
#840893
0;
#842055
0$
#843008
0<
#845835
1j
1e
#848102
1`
#850000
1"
0,
#850786
1;
#852136
1$
#853008
1<
#855835
0j
0e
#858068
0`
#860000
0"
1,
#860893
0;
#862055
0$
#863008
0<
#865835
1j
1e
#868102
1`
#870000
1"
0,
#870786
1;
#872136
1$
#873008
1<
#875835
0j
0e
#878068
0`
#880000
0"
1,
#880893
0;
#882055
0$
#883008
0<
#885835
1j
1e
#888102
1`
#890000
1"
0,
#890786
1;
#892136
1$
#893008
1<
#895835
0j
0e
#898068
0`
#900000
0"
1,
#900893
0;
#902055
0$
#903008
0<
#905835
1j
1e
#908102
1`
#910000
1"
0,
#910786
1;
#912136
1$
#913008
1<
#915835
0j
0e
#918068
0`
#920000
0"
1,
#920893
0;
#922055
0$
#923008
0<
#925835
1j
1e
#928102
1`
#930000
1"
0,
#930786
1;
#932136
1$
#933008
1<
#935835
0j
0e
#938068
0`
#940000
0"
1,
#940893
0;
#942055
0$
#943008
0<
#945835
1j
1e
#948102
1`
#950000
1"
0,
#950786
1;
#952136
1$
#953008
1<
#955835
0j
0e
#958068
0`
#960000
0"
1,
#960893
0;
#962055
0$
#963008
0<
#965835
1j
1e
#968102
1`
#970000
1"
0,
#970786
1;
#972136
1$
#973008
1<
#975835
0j
0e
#978068
0`
#980000
0"
1,
#980893
0;
#982055
0$
#983008
0<
#985835
1j
1e
#988102
1`
#990000
1"
0,
#990786
1;
#992136
1$
#993008
1<
